EESchema Schematic File Version 4
EELAYER 30 0
EELAYER END
$Descr A4 11693 8268
encoding utf-8
Sheet 1 1
Title ""
Date ""
Rev ""
Comp ""
Comment1 ""
Comment2 ""
Comment3 ""
Comment4 ""
$EndDescr
$Comp
L Connector_Generic:Conn_01x04 J5
U 1 1 61E5DD5C
P 5075 3600
F 0 "J5" V 4947 3312 50  0000 R CNN
F 1 "Rear" V 5038 3312 50  0000 R CNN
F 2 "suf_connector_TE-AMPMODU-MTE:TE_AMPMODU_MTE_2.54_01x04_right" H 5075 3600 50  0001 C CNN
F 3 "~" H 5075 3600 50  0001 C CNN
	1    5075 3600
	0    -1   1    0   
$EndComp
$Comp
L Connector_Generic:Conn_01x04 J6
U 1 1 61E5E56E
P 6375 2800
F 0 "J6" H 6455 2792 50  0000 L CNN
F 1 "E1326A" H 6455 2701 50  0000 L CNN
F 2 "suf_connector_TE-AMPMODU-MTE:TE_AMPMODU_MTE_2.54_01x04_right" H 6375 2800 50  0001 C CNN
F 3 "~" H 6375 2800 50  0001 C CNN
	1    6375 2800
	1    0    0    -1  
$EndComp
$Comp
L Connector_Generic:Conn_01x01 J1
U 1 1 61E5EE97
P 4700 2300
F 0 "J1" H 4618 2517 50  0000 C CNN
F 1 "High" H 4618 2426 50  0000 C CNN
F 2 "suf_connector_misc:FCR7350R" H 4700 2300 50  0001 C CNN
F 3 "~" H 4700 2300 50  0001 C CNN
	1    4700 2300
	-1   0    0    -1  
$EndComp
$Comp
L Connector_Generic:Conn_01x01 J2
U 1 1 61E5F2C5
P 4700 2600
F 0 "J2" H 4618 2817 50  0000 C CNN
F 1 "Low" H 4618 2726 50  0000 C CNN
F 2 "suf_connector_misc:FCR7350R" H 4700 2600 50  0001 C CNN
F 3 "~" H 4700 2600 50  0001 C CNN
	1    4700 2600
	-1   0    0    -1  
$EndComp
$Comp
L Connector_Generic:Conn_01x01 J3
U 1 1 61E5F84B
P 4700 2900
F 0 "J3" H 4618 3117 50  0000 C CNN
F 1 "Com" H 4618 3026 50  0000 C CNN
F 2 "suf_connector_misc:FCR7350R" H 4700 2900 50  0001 C CNN
F 3 "~" H 4700 2900 50  0001 C CNN
	1    4700 2900
	-1   0    0    -1  
$EndComp
$Comp
L Connector_Generic:Conn_01x01 J4
U 1 1 61E5FDF6
P 4700 3200
F 0 "J4" H 4618 3417 50  0000 C CNN
F 1 "I/R" H 4618 3326 50  0000 C CNN
F 2 "suf_connector_misc:FCR7350R" H 4700 3200 50  0001 C CNN
F 3 "~" H 4700 3200 50  0001 C CNN
	1    4700 3200
	-1   0    0    -1  
$EndComp
$Comp
L MMS42:MMS42 S1
U 1 1 61E6C95D
P 5675 2600
F 0 "S1" H 5675 3167 50  0000 C CNN
F 1 "Front/Back" H 5675 3076 50  0000 C CNN
F 2 "suf_switch:PB-42D01-L" H 5675 2600 50  0001 L BNN
F 3 "" H 5675 2600 50  0001 L BNN
F 4 "679-1858-ND" H 5675 2600 50  0001 L BNN "DIGIKEY"
F 5 "MMS42" H 5675 2600 50  0001 L BNN "MPN"
	1    5675 2600
	-1   0    0    -1  
$EndComp
Wire Wire Line
	5975 2400 6075 2400
Wire Wire Line
	6075 2400 6075 2700
Wire Wire Line
	6075 2700 6175 2700
Wire Wire Line
	5975 2700 5975 2800
Wire Wire Line
	5975 2800 6175 2800
Wire Wire Line
	5975 3000 5975 2900
Wire Wire Line
	5975 2900 6175 2900
Wire Wire Line
	5975 3300 6075 3300
Wire Wire Line
	6075 3300 6075 3000
Wire Wire Line
	6075 3000 6175 3000
Wire Wire Line
	5375 3300 5275 3300
Wire Wire Line
	5275 3300 5275 3400
Wire Wire Line
	5375 3000 5175 3000
Wire Wire Line
	5175 3000 5175 3400
Wire Wire Line
	5375 2400 4975 2400
Wire Wire Line
	4975 2400 4975 3400
Wire Wire Line
	5075 3400 5075 2700
Wire Wire Line
	5075 2700 5375 2700
Wire Wire Line
	5375 3200 4900 3200
Wire Wire Line
	5375 2900 4900 2900
Wire Wire Line
	5375 2600 4900 2600
Wire Wire Line
	5375 2300 4900 2300
$EndSCHEMATC
